FreeLancing Projects Files/Quad_solver/Old_Quad/Quad_Solver/Quad_Solver.sim/sim_1/behav/xsim/simulate.log
Vivado Simulator 2019.1
Time resolution is 1 ps
Opening test case and result files...
Writing header to result file...
Initializing testbench...
Reading test case #0...
Test case #0 read: a=00010000, b=ffff0000, c=fffe0000, exp_r1=ffff0000, exp_im1=00000000, exp_r2=00020000, exp_im2=00000000
Applying inputs for test case #0...
Measuring latency for test case #0...
Latency for test case #0: 13 cycles
Capturing outputs for test case #0...
Observed outputs for test case #0: obs_r1=00000000, obs_im1=00000000, obs_r2=00000000, obs_im2=00000000
Test case #0 failed.
Reading test case #1...
Test case #1 read: a=00010000, b=ffff0000, c=ffa60000, exp_r1=fff70000, exp_im1=00000000, exp_r2=000a0000, exp_im2=00000000
Applying inputs for test case #1...
Measuring latency for test case #1...
Latency for test case #1: 0 cycles
Capturing outputs for test case #1...
Observed outputs for test case #1: obs_r1=00000000, obs_im1=00000000, obs_r2=00000000, obs_im2=00000000
Test case #1 failed.
Reading test case #2...
Test case #2 read: a=00010000, b=ffff0000, c=ffd60000, exp_r1=fffa0000, exp_im1=00000000, exp_r2=00070000, exp_im2=00000000
Applying inputs for test case #2...
Measuring latency for test case #2...
Latency for test case #2: 5 cycles
Capturing outputs for test case #2...
Observed outputs for test case #2: obs_r1=ffff0000, obs_im1=ffff0000, obs_r2=ffff0000, obs_im2=ffff0000
Test case #2 failed.
Reading test case #3...
Test case #3 read: a=00010000, b=000f0000, c=00360000, exp_r1=fff70000, exp_im1=00000000, exp_r2=fffa0000, exp_im2=00000000
Applying inputs for test case #3...
Measuring latency for test case #3...
Latency for test case #3: 0 cycles
Capturing outputs for test case #3...
Observed outputs for test case #3: obs_r1=00010000, obs_im1=00000000, obs_r2=00000000, obs_im2=00000000
Test case #3 failed.
Reading test case #4...
Test case #4 read: a=00010000, b=fffc0000, c=ffe00000, exp_r1=fffc0000, exp_im1=00000000, exp_r2=00080000, exp_im2=00000000
Applying inputs for test case #4...
Measuring latency for test case #4...
Latency for test case #4: 0 cycles
Capturing outputs for test case #4...
Observed outputs for test case #4: obs_r1=00000000, obs_im1=00000000, obs_r2=00000000, obs_im2=00000000
Test case #4 failed.
Reading test case #5...
Test case #5 read: a=00010000, b=fff60000, c=00180000, exp_r1=00040000, exp_im1=00000000, exp_r2=00060000, exp_im2=00000000
Applying inputs for test case #5...
Measuring latency for test case #5...
Latency for test case #5: 0 cycles
Capturing outputs for test case #5...
Observed outputs for test case #5: obs_r1=00000000, obs_im1=00000000, obs_r2=00000000, obs_im2=00010000
Test case #5 failed.
Reading test case #6...
Test case #6 read: a=00010000, b=fffa0000, c=00050000, exp_r1=00010000, exp_im1=00000000, exp_r2=00050000, exp_im2=00000000
Applying inputs for test case #6...
Measuring latency for test case #6...
Latency for test case #6: 0 cycles
Capturing outputs for test case #6...
Observed outputs for test case #6: obs_r1=00000000, obs_im1=ffff0000, obs_r2=ffff0000, obs_im2=00000000
Test case #6 failed.
Reading test case #7...
Test case #7 read: a=00010000, b=fffa0000, c=00050000, exp_r1=00010000, exp_im1=00000000, exp_r2=00050000, exp_im2=00000000
Applying inputs for test case #7...
Measuring latency for test case #7...
Latency for test case #7: 0 cycles
Capturing outputs for test case #7...
Observed outputs for test case #7: obs_r1=00000000, obs_im1=00000000, obs_r2=00000000, obs_im2=00000000
Test case #7 failed.
Reading test case #8...
Test case #8 read: a=00010000, b=fff90000, c=ffee0000, exp_r1=fffe0000, exp_im1=00000000, exp_r2=00090000, exp_im2=00000000
Applying inputs for test case #8...
Measuring latency for test case #8...
Latency for test case #8: 0 cycles
Capturing outputs for test case #8...
Observed outputs for test case #8: obs_r1=00000000, obs_im1=00000000, obs_r2=00000000, obs_im2=00000000
Test case #8 failed.
Reading test case #9...
Test case #9 read: a=00010000, b=fffa0000, c=00050000, exp_r1=00010000, exp_im1=00000000, exp_r2=00050000, exp_im2=00000000
Applying inputs for test case #9...
