FreeLancing Projects Files/Quad_solver/Quad_Solver/Quad_Solver.sim/sim_1/behav/xsim/simulate.log
Vivado Simulator 2019.1
Time resolution is 1 ps
Opening test case and result files...
Writing header to result file...
Initializing testbench...
Reading test case #0...
Test case #0 read: a=00010000, b=ffff0000, c=fffe0000, exp_r1=ffff0000, exp_im1=00000000, exp_r2=00020000, exp_im2=00000000
Applying inputs for test case #0...
Measuring latency for test case #0...
Latency for test case #0: 0 cycles
Capturing outputs for test case #0...
Observed outputs for test case #0: obs_r1=ffff0000, obs_im1=00000000, obs_r2=00020000, obs_im2=00000000
Test case #0 passed.
Reading test case #1...
Test case #1 read: a=00010000, b=ffff0000, c=ffa60000, exp_r1=fff70000, exp_im1=00000000, exp_r2=000a0000, exp_im2=00000000
Applying inputs for test case #1...
Measuring latency for test case #1...
Latency for test case #1: 0 cycles
Capturing outputs for test case #1...
Observed outputs for test case #1: obs_r1=fff70000, obs_im1=00000000, obs_r2=000a0000, obs_im2=00000000
Test case #1 passed.
Reading test case #2...
Test case #2 read: a=00010000, b=ffff0000, c=ffd60000, exp_r1=fffa0000, exp_im1=00000000, exp_r2=00070000, exp_im2=00000000
Applying inputs for test case #2...
Measuring latency for test case #2...
Latency for test case #2: 0 cycles
Capturing outputs for test case #2...
Observed outputs for test case #2: obs_r1=fffa0000, obs_im1=00000000, obs_r2=00070000, obs_im2=00000000
Test case #2 passed.
Reading test case #3...
Test case #3 read: a=00010000, b=000f0000, c=00360000, exp_r1=fff70000, exp_im1=00000000, exp_r2=fffa0000, exp_im2=00000000
Applying inputs for test case #3...
Measuring latency for test case #3...
Latency for test case #3: 0 cycles
Capturing outputs for test case #3...
Observed outputs for test case #3: obs_r1=fff70000, obs_im1=00000000, obs_r2=fffa0000, obs_im2=00000000
Test case #3 passed.
Reading test case #4...
Test case #4 read: a=00010000, b=fffc0000, c=ffe00000, exp_r1=fffc0000, exp_im1=00000000, exp_r2=00080000, exp_im2=00000000
Applying inputs for test case #4...
Measuring latency for test case #4...
Latency for test case #4: 0 cycles
Capturing outputs for test case #4...
Observed outputs for test case #4: obs_r1=fffc0000, obs_im1=00000000, obs_r2=00080000, obs_im2=00000000
Test case #4 passed.
Reading test case #5...
Test case #5 read: a=00010000, b=fff60000, c=00180000, exp_r1=00040000, exp_im1=00000000, exp_r2=00060000, exp_im2=00000000
Applying inputs for test case #5...
Measuring latency for test case #5...
Latency for test case #5: 0 cycles
Capturing outputs for test case #5...
Observed outputs for test case #5: obs_r1=00040000, obs_im1=00000000, obs_r2=00060000, obs_im2=00000000
Test case #5 passed.
Reading test case #6...
Test case #6 read: a=00010000, b=fffa0000, c=00050000, exp_r1=00010000, exp_im1=00000000, exp_r2=00050000, exp_im2=00000000
Applying inputs for test case #6...
Measuring latency for test case #6...
Latency for test case #6: 0 cycles
Capturing outputs for test case #6...
Observed outputs for test case #6: obs_r1=00010000, obs_im1=00000000, obs_r2=00050000, obs_im2=00000000
Test case #6 passed.
Reading test case #7...
Test case #7 read: a=00010000, b=fffa0000, c=00050000, exp_r1=00010000, exp_im1=00000000, exp_r2=00050000, exp_im2=00000000
Applying inputs for test case #7...
Measuring latency for test case #7...
Latency for test case #7: 0 cycles
Capturing outputs for test case #7...
Observed outputs for test case #7: obs_r1=00010000, obs_im1=00000000, obs_r2=00050000, obs_im2=00000000
Test case #7 passed.
Reading test case #8...
Test case #8 read: a=00010000, b=fff90000, c=ffee0000, exp_r1=fffe0000, exp_im1=00000000, exp_r2=00090000, exp_im2=00000000
Applying inputs for test case #8...
Measuring latency for test case #8...
Latency for test case #8: 0 cycles
Capturing outputs for test case #8...
Observed outputs for test case #8: obs_r1=fffe0000, obs_im1=00000000, obs_r2=00090000, obs_im2=00000000
Test case #8 passed.
Reading test case #9...
Test case #9 read: a=00010000, b=fffa0000, c=00050000, exp_r1=00010000, exp_im1=00000000, exp_r2=00050000, exp_im2=00000000
Applying inputs for test case #9...
Measuring latency for test case #9...
Latency for test case #9: 0 cycles
Capturing outputs for test case #9...
Observed outputs for test case #9: obs_r1=00010000, obs_im1=00000000, obs_r2=00050000, obs_im2=00000000
Test case #9 passed.
Reading test case #10...
Test case #10 read: a=00010000, b=fffd0000, c=ffe40000, exp_r1=fffc0000, exp_im1=00000000, exp_r2=00070000, exp_im2=00000000
Applying inputs for test case #10...
Measuring latency for test case #10...
Latency for test case #10: 0 cycles
Capturing outputs for test case #10...
Observed outputs for test case #10: obs_r1=fffc0000, obs_im1=00000000, obs_r2=00070000, obs_im2=00000000
Test case #10 passed.
Reading test case #11...
Test case #11 read: a=00010000, b=00090000, c=00120000, exp_r1=fffa0000, exp_im1=00000000, exp_r2=fffd0000, exp_im2=00000000
Applying inputs for test case #11...
Measuring latency for test case #11...
Latency for test case #11: 0 cycles
Capturing outputs for test case #11...
Observed outputs for test case #11: obs_r1=fffa0000, obs_im1=00000000, obs_r2=fffd0000, obs_im2=00000000
Test case #11 passed.
Reading test case #12...
Test case #12 read: a=00010000, b=00050000, c=00040000, exp_r1=fffc0000, exp_im1=00000000, exp_r2=ffff0000, exp_im2=00000000
Applying inputs for test case #12...
Measuring latency for test case #12...
Latency for test case #12: 0 cycles
Capturing outputs for test case #12...
Observed outputs for test case #12: obs_r1=fffc0000, obs_im1=00000000, obs_r2=ffff0000, obs_im2=00000000
Test case #12 passed.
Reading test case #13...
Test case #13 read: a=00010000, b=fff20000, c=00300000, exp_r1=00060000, exp_im1=00000000, exp_r2=00080000, exp_im2=00000000
Applying inputs for test case #13...
Measuring latency for test case #13...
Latency for test case #13: 0 cycles
Capturing outputs for test case #13...
Observed outputs for test case #13: obs_r1=00060000, obs_im1=00000000, obs_r2=00080000, obs_im2=00000000
Test case #13 passed.
Reading test case #14...
Test case #14 read: a=00010000, b=fffb0000, c=fff20000, exp_r1=fffe0000, exp_im1=00000000, exp_r2=00070000, exp_im2=00000000
Applying inputs for test case #14...
Measuring latency for test case #14...
Latency for test case #14: 0 cycles
Capturing outputs for test case #14...
Observed outputs for test case #14: obs_r1=fffe0000, obs_im1=00000000, obs_r2=00070000, obs_im2=00000000
Test case #14 passed.
Reading test case #15...
Test case #15 read: a=00010000, b=00060000, c=002d0000, exp_r1=fffd0000, exp_im1=00060000, exp_r2=fffd0000, exp_im2=fffa0000
Applying inputs for test case #15...
Measuring latency for test case #15...
Latency for test case #15: 0 cycles
Capturing outputs for test case #15...
Observed outputs for test case #15: obs_r1=fffd0000, obs_im1=00060000, obs_r2=fffd0000, obs_im2=fffa0000
Test case #15 passed.
Reading test case #16...
Test case #16 read: a=00010000, b=000e0000, c=003a0000, exp_r1=fff90000, exp_im1=00030000, exp_r2=fff90000, exp_im2=fffd0000
Applying inputs for test case #16...
Measuring latency for test case #16...
Latency for test case #16: 0 cycles
Capturing outputs for test case #16...
Observed outputs for test case #16: obs_r1=fff90000, obs_im1=00030000, obs_r2=fff90000, obs_im2=fffd0000
Test case #16 passed.
Reading test case #17...
Test case #17 read: a=00010000, b=fffc0000, c=00080000, exp_r1=00020000, exp_im1=00020000, exp_r2=00020000, exp_im2=fffe0000
Applying inputs for test case #17...
Measuring latency for test case #17...
Latency for test case #17: 0 cycles
Capturing outputs for test case #17...
Observed outputs for test case #17: obs_r1=00020000, obs_im1=00020000, obs_r2=00020000, obs_im2=fffe0000
Test case #17 passed.
Reading test case #18...
Test case #18 read: a=00010000, b=fff20000, c=004a0000, exp_r1=00070000, exp_im1=00050000, exp_r2=00070000, exp_im2=fffb0000
Applying inputs for test case #18...
Measuring latency for test case #18...
Latency for test case #18: 0 cycles
Capturing outputs for test case #18...
Observed outputs for test case #18: obs_r1=00070000, obs_im1=00050000, obs_r2=00070000, obs_im2=fffb0000
Test case #18 passed.
Reading test case #19...
Test case #19 read: a=00010000, b=fff00000, c=00440000, exp_r1=00080000, exp_im1=00020000, exp_r2=00080000, exp_im2=fffe0000
Applying inputs for test case #19...
Measuring latency for test case #19...
Latency for test case #19: 0 cycles
Capturing outputs for test case #19...
Observed outputs for test case #19: obs_r1=00080000, obs_im1=00020000, obs_r2=00080000, obs_im2=fffe0000
Test case #19 passed.
Reading test case #20...
Test case #20 read: a=00010000, b=00040000, c=00140000, exp_r1=fffe0000, exp_im1=00040000, exp_r2=fffe0000, exp_im2=fffc0000
Applying inputs for test case #20...
Measuring latency for test case #20...
Latency for test case #20: 0 cycles
Capturing outputs for test case #20...
Observed outputs for test case #20: obs_r1=fffe0000, obs_im1=00040000, obs_r2=fffe0000, obs_im2=fffc0000
Test case #20 passed.
Reading test case #21...
Test case #21 read: a=00010000, b=00040000, c=00440000, exp_r1=fffe0000, exp_im1=00080000, exp_r2=fffe0000, exp_im2=fff80000
Applying inputs for test case #21...
Measuring latency for test case #21...
Latency for test case #21: 0 cycles
Capturing outputs for test case #21...
Observed outputs for test case #21: obs_r1=fffe0000, obs_im1=00080000, obs_r2=fffe0000, obs_im2=fff80000
Test case #21 passed.
Reading test case #22...
Test case #22 read: a=00010000, b=00000000, c=00100000, exp_r1=00000000, exp_im1=00040000, exp_r2=00000000, exp_im2=fffc0000
Applying inputs for test case #22...
Measuring latency for test case #22...
Latency for test case #22: 0 cycles
Capturing outputs for test case #22...
Observed outputs for test case #22: obs_r1=00000000, obs_im1=00040000, obs_r2=00000000, obs_im2=fffc0000
Test case #22 passed.
Reading test case #23...
Test case #23 read: a=00010000, b=000e0000, c=00410000, exp_r1=fff90000, exp_im1=00040000, exp_r2=fff90000, exp_im2=fffc0000
Applying inputs for test case #23...
Measuring latency for test case #23...
Latency for test case #23: 0 cycles
Capturing outputs for test case #23...
Observed outputs for test case #23: obs_r1=fff90000, obs_im1=00040000, obs_r2=fff90000, obs_im2=fffc0000
Test case #23 passed.
Reading test case #24...
Test case #24 read: a=00010000, b=fff20000, c=00350000, exp_r1=00070000, exp_im1=00020000, exp_r2=00070000, exp_im2=fffe0000
Applying inputs for test case #24...
Measuring latency for test case #24...
Latency for test case #24: 0 cycles
Capturing outputs for test case #24...
Observed outputs for test case #24: obs_r1=00070000, obs_im1=00020000, obs_r2=00070000, obs_im2=fffe0000
Test case #24 passed.
Reading test case #25...
Test case #25 read: a=00010000, b=fff40000, c=00280000, exp_r1=00060000, exp_im1=00020000, exp_r2=00060000, exp_im2=fffe0000
Applying inputs for test case #25...
Measuring latency for test case #25...
Latency for test case #25: 0 cycles
Capturing outputs for test case #25...
Observed outputs for test case #25: obs_r1=00060000, obs_im1=00020000, obs_r2=00060000, obs_im2=fffe0000
Test case #25 passed.
Reading test case #26...
Test case #26 read: a=00010000, b=fff80000, c=00500000, exp_r1=00040000, exp_im1=00080000, exp_r2=00040000, exp_im2=fff80000
Applying inputs for test case #26...
Measuring latency for test case #26...
Latency for test case #26: 0 cycles
Capturing outputs for test case #26...
Observed outputs for test case #26: obs_r1=00040000, obs_im1=00080000, obs_r2=00040000, obs_im2=fff80000
Test case #26 passed.
Reading test case #27...
Test case #27 read: a=00010000, b=fffa0000, c=003a0000, exp_r1=00030000, exp_im1=00070000, exp_r2=00030000, exp_im2=fff90000
Applying inputs for test case #27...
Measuring latency for test case #27...
Latency for test case #27: 0 cycles
Capturing outputs for test case #27...
Observed outputs for test case #27: obs_r1=00030000, obs_im1=00070000, obs_r2=00030000, obs_im2=fff90000
Test case #27 passed.
Reading test case #28...
Test case #28 read: a=00010000, b=fffc0000, c=00140000, exp_r1=00020000, exp_im1=00040000, exp_r2=00020000, exp_im2=fffc0000
Applying inputs for test case #28...
Measuring latency for test case #28...
Latency for test case #28: 0 cycles
Capturing outputs for test case #28...
Observed outputs for test case #28: obs_r1=00020000, obs_im1=00040000, obs_r2=00020000, obs_im2=fffc0000
Test case #28 passed.
Reading test case #29...
Test case #29 read: a=00010000, b=00040000, c=00050000, exp_r1=fffe0000, exp_im1=00010000, exp_r2=fffe0000, exp_im2=ffff0000
Applying inputs for test case #29...
Measuring latency for test case #29...
Latency for test case #29: 0 cycles
Capturing outputs for test case #29...
Observed outputs for test case #29: obs_r1=fffe0000, obs_im1=00010000, obs_r2=fffe0000, obs_im2=ffff0000
Test case #29 passed.
Calculating average latency...
Calculating final score...
Number of successes: 30
Average latency: 0.00 cycles
Final score: 100.00
Closing files...
Testbench completed. Results written to test_results.txt.
$finish called at time : 2720 ns : File "D:/Extra_Projects/Quad_solver/Quad_Solver/Files/testbench.v" Line 158
