FreeLancing Projects Files/RVM/rvm/rvm.sim/sim_1/behav/xsim/simulate.log
Vivado Simulator 2019.1
Time resolution is 1 ps
Time =                    0 | reset = 1 | sensor = 0000 | AF = x | BF = x | LED = 0 | SF = x | anodes = xxxx | cathodes = xxxxxxx
Time =                10000 | reset = 1 | sensor = 0000 | AF = x | BF = x | LED = 0 | SF = x | anodes = 1111 | cathodes = xxxxxxx
Time =                20000 | reset = 0 | sensor = 0000 | AF = x | BF = x | LED = 0 | SF = x | anodes = 1111 | cathodes = xxxxxxx
Time =                30000 | reset = 0 | sensor = 0000 | AF = x | BF = x | LED = 0 | SF = x | anodes = 1110 | cathodes = 1111111
Time =           2000030000 | reset = 0 | sensor = 0000 | AF = x | BF = x | LED = 0 | SF = x | anodes = 1101 | cathodes = 1111111
Time =           4000030000 | reset = 0 | sensor = 0000 | AF = x | BF = x | LED = 0 | SF = x | anodes = 1011 | cathodes = 1111111
Time =           5000010000 | reset = 0 | sensor = 0000 | AF = 0 | BF = 1 | LED = 0 | SF = 1 | anodes = 1011 | cathodes = 1111111
Time =           5000030000 | reset = 0 | sensor = 0000 | AF = 0 | BF = 1 | LED = 0 | SF = 1 | anodes = 1011 | cathodes = 1001111
Time =           6000030000 | reset = 0 | sensor = 0000 | AF = 0 | BF = 1 | LED = 0 | SF = 1 | anodes = 1111 | cathodes = 1001111
Time =           6000050000 | reset = 0 | sensor = 0000 | AF = 0 | BF = 1 | LED = 0 | SF = 1 | anodes = 1110 | cathodes = 1110001
Time =           8000030000 | reset = 0 | sensor = 0000 | AF = 0 | BF = 1 | LED = 0 | SF = 1 | anodes = 1101 | cathodes = 1000010
Time =          10000020000 | reset = 0 | sensor = 0001 | AF = 0 | BF = 1 | LED = 0 | SF = 1 | anodes = 1101 | cathodes = 1000010
Time =          10000030000 | reset = 0 | sensor = 0001 | AF = 0 | BF = 1 | LED = 0 | SF = 1 | anodes = 1011 | cathodes = 1001111
Time =          12000030000 | reset = 0 | sensor = 0001 | AF = 0 | BF = 1 | LED = 0 | SF = 1 | anodes = 1111 | cathodes = 1001111
Time =          12000050000 | reset = 0 | sensor = 0001 | AF = 0 | BF = 1 | LED = 0 | SF = 1 | anodes = 1110 | cathodes = 1110001
Time =          14000030000 | reset = 0 | sensor = 0001 | AF = 0 | BF = 1 | LED = 0 | SF = 1 | anodes = 1101 | cathodes = 1000010
Time =          16000030000 | reset = 0 | sensor = 0001 | AF = 0 | BF = 1 | LED = 0 | SF = 1 | anodes = 1011 | cathodes = 1001111
Time =          18000030000 | reset = 0 | sensor = 0001 | AF = 0 | BF = 1 | LED = 0 | SF = 1 | anodes = 1111 | cathodes = 1001111
Time =          18000050000 | reset = 0 | sensor = 0001 | AF = 0 | BF = 1 | LED = 0 | SF = 1 | anodes = 1110 | cathodes = 1110001
Time =          20000030000 | reset = 0 | sensor = 0001 | AF = 0 | BF = 1 | LED = 0 | SF = 1 | anodes = 1101 | cathodes = 1000010
Time =          22000030000 | reset = 0 | sensor = 0001 | AF = 0 | BF = 1 | LED = 0 | SF = 1 | anodes = 1011 | cathodes = 1001111
Time =          24000030000 | reset = 0 | sensor = 0001 | AF = 0 | BF = 1 | LED = 0 | SF = 1 | anodes = 1111 | cathodes = 1001111
Time =          24000050000 | reset = 0 | sensor = 0001 | AF = 0 | BF = 1 | LED = 0 | SF = 1 | anodes = 1110 | cathodes = 1110001
Time =          25000010000 | reset = 0 | sensor = 0001 | AF = 1 | BF = 1 | LED = 0 | SF = 1 | anodes = 1110 | cathodes = 1110001
Time =          25000030000 | reset = 0 | sensor = 0001 | AF = 1 | BF = 1 | LED = 0 | SF = 1 | anodes = 1110 | cathodes = 1110000
Time =          26000030000 | reset = 0 | sensor = 0001 | AF = 1 | BF = 1 | LED = 0 | SF = 1 | anodes = 1101 | cathodes = 0110000
Time =          28000030000 | reset = 0 | sensor = 0001 | AF = 1 | BF = 1 | LED = 0 | SF = 1 | anodes = 1011 | cathodes = 1000010
Time =          30000020000 | reset = 0 | sensor = 1001 | AF = 1 | BF = 1 | LED = 0 | SF = 1 | anodes = 1011 | cathodes = 1000010
Time =          30000030000 | reset = 0 | sensor = 1001 | AF = 1 | BF = 1 | LED = 0 | SF = 1 | anodes = 1111 | cathodes = 1000010
Time =          30000050000 | reset = 0 | sensor = 1001 | AF = 1 | BF = 1 | LED = 0 | SF = 1 | anodes = 1110 | cathodes = 1110000
Time =          32000030000 | reset = 0 | sensor = 1001 | AF = 1 | BF = 1 | LED = 0 | SF = 1 | anodes = 1101 | cathodes = 0110000
Time =          34000030000 | reset = 0 | sensor = 1001 | AF = 1 | BF = 1 | LED = 0 | SF = 1 | anodes = 1011 | cathodes = 1000010
Time =          36000030000 | reset = 0 | sensor = 1001 | AF = 1 | BF = 1 | LED = 0 | SF = 1 | anodes = 1111 | cathodes = 1000010
Time =          36000050000 | reset = 0 | sensor = 1001 | AF = 1 | BF = 1 | LED = 0 | SF = 1 | anodes = 1110 | cathodes = 1110000
Time =          38000030000 | reset = 0 | sensor = 1001 | AF = 1 | BF = 1 | LED = 0 | SF = 1 | anodes = 1101 | cathodes = 0110000
Time =          40000030000 | reset = 0 | sensor = 1001 | AF = 1 | BF = 1 | LED = 0 | SF = 1 | anodes = 1011 | cathodes = 1000010
Time =          42000030000 | reset = 0 | sensor = 1001 | AF = 1 | BF = 1 | LED = 0 | SF = 1 | anodes = 1111 | cathodes = 1000010
Time =          42000050000 | reset = 0 | sensor = 1001 | AF = 1 | BF = 1 | LED = 0 | SF = 1 | anodes = 1110 | cathodes = 1110000
Time =          44000030000 | reset = 0 | sensor = 1001 | AF = 1 | BF = 1 | LED = 0 | SF = 1 | anodes = 1101 | cathodes = 0110000
Time =          46000030000 | reset = 0 | sensor = 1001 | AF = 1 | BF = 1 | LED = 0 | SF = 1 | anodes = 1011 | cathodes = 1000010
Time =          48000030000 | reset = 0 | sensor = 1001 | AF = 1 | BF = 1 | LED = 0 | SF = 1 | anodes = 1111 | cathodes = 1000010
Time =          48000050000 | reset = 0 | sensor = 1001 | AF = 1 | BF = 1 | LED = 0 | SF = 1 | anodes = 1110 | cathodes = 1110000
Time =          50000030000 | reset = 0 | sensor = 1001 | AF = 1 | BF = 1 | LED = 0 | SF = 1 | anodes = 1101 | cathodes = 0110000
Time =          52000030000 | reset = 0 | sensor = 1001 | AF = 1 | BF = 1 | LED = 0 | SF = 1 | anodes = 1011 | cathodes = 1000010
Time =          54000030000 | reset = 0 | sensor = 1001 | AF = 1 | BF = 1 | LED = 0 | SF = 1 | anodes = 1111 | cathodes = 1000010
Time =          54000050000 | reset = 0 | sensor = 1001 | AF = 1 | BF = 1 | LED = 0 | SF = 1 | anodes = 1110 | cathodes = 1110000
Time =          55000030000 | reset = 0 | sensor = 1001 | AF = 0 | BF = 1 | LED = 0 | SF = 1 | anodes = 1110 | cathodes = 1110000
Time =          55000050000 | reset = 0 | sensor = 1001 | AF = 0 | BF = 1 | LED = 0 | SF = 1 | anodes = 1110 | cathodes = 1111010
Time =          56000030000 | reset = 0 | sensor = 1001 | AF = 0 | BF = 1 | LED = 0 | SF = 1 | anodes = 1101 | cathodes = 1111010
Time =          58000030000 | reset = 0 | sensor = 1001 | AF = 0 | BF = 1 | LED = 0 | SF = 1 | anodes = 1011 | cathodes = 0110000
Time =          60000030000 | reset = 0 | sensor = 1001 | AF = 0 | BF = 1 | LED = 0 | SF = 1 | anodes = 1111 | cathodes = 0110000
Time =          60000050000 | reset = 0 | sensor = 1001 | AF = 0 | BF = 1 | LED = 0 | SF = 1 | anodes = 1110 | cathodes = 1111010
Time =          62000030000 | reset = 0 | sensor = 1001 | AF = 0 | BF = 1 | LED = 0 | SF = 1 | anodes = 1101 | cathodes = 1111010
Time =          64000030000 | reset = 0 | sensor = 1001 | AF = 0 | BF = 1 | LED = 0 | SF = 1 | anodes = 1011 | cathodes = 0110000
Time =          66000030000 | reset = 0 | sensor = 1001 | AF = 0 | BF = 1 | LED = 0 | SF = 1 | anodes = 1111 | cathodes = 0110000
Time =          66000050000 | reset = 0 | sensor = 1001 | AF = 0 | BF = 1 | LED = 0 | SF = 1 | anodes = 1110 | cathodes = 1111010
Time =          68000030000 | reset = 0 | sensor = 1001 | AF = 0 | BF = 1 | LED = 0 | SF = 1 | anodes = 1101 | cathodes = 1111010
Time =          70000030000 | reset = 0 | sensor = 1001 | AF = 0 | BF = 1 | LED = 0 | SF = 1 | anodes = 1011 | cathodes = 0110000
Time =          72000030000 | reset = 0 | sensor = 1001 | AF = 0 | BF = 1 | LED = 0 | SF = 1 | anodes = 1111 | cathodes = 0110000
Time =          72000050000 | reset = 0 | sensor = 1001 | AF = 0 | BF = 1 | LED = 0 | SF = 1 | anodes = 1110 | cathodes = 1111010
Time =          74000030000 | reset = 0 | sensor = 1001 | AF = 0 | BF = 1 | LED = 0 | SF = 1 | anodes = 1101 | cathodes = 1111010
Time =          76000030000 | reset = 0 | sensor = 1001 | AF = 0 | BF = 1 | LED = 0 | SF = 1 | anodes = 1011 | cathodes = 0110000
Time =          78000030000 | reset = 0 | sensor = 1001 | AF = 0 | BF = 1 | LED = 0 | SF = 1 | anodes = 1111 | cathodes = 0110000
Time =          78000050000 | reset = 0 | sensor = 1001 | AF = 0 | BF = 1 | LED = 0 | SF = 1 | anodes = 1110 | cathodes = 1111010
Time =          80000030000 | reset = 0 | sensor = 1001 | AF = 0 | BF = 1 | LED = 0 | SF = 1 | anodes = 1101 | cathodes = 1111010
Time =          82000030000 | reset = 0 | sensor = 1001 | AF = 0 | BF = 1 | LED = 0 | SF = 1 | anodes = 1011 | cathodes = 0110000
Time =          84000030000 | reset = 0 | sensor = 1001 | AF = 0 | BF = 1 | LED = 0 | SF = 1 | anodes = 1111 | cathodes = 0110000
Time =          84000050000 | reset = 0 | sensor = 1001 | AF = 0 | BF = 1 | LED = 0 | SF = 1 | anodes = 1110 | cathodes = 1111010
Time =          86000030000 | reset = 0 | sensor = 1001 | AF = 0 | BF = 1 | LED = 0 | SF = 1 | anodes = 1101 | cathodes = 1111010
Time =          88000030000 | reset = 0 | sensor = 1001 | AF = 0 | BF = 1 | LED = 0 | SF = 1 | anodes = 1011 | cathodes = 0110000
Time =          90000030000 | reset = 0 | sensor = 1001 | AF = 0 | BF = 1 | LED = 0 | SF = 1 | anodes = 1111 | cathodes = 0110000
Time =          90000050000 | reset = 0 | sensor = 1001 | AF = 0 | BF = 1 | LED = 0 | SF = 1 | anodes = 1110 | cathodes = 1111010
Time =          92000030000 | reset = 0 | sensor = 1001 | AF = 0 | BF = 1 | LED = 0 | SF = 1 | anodes = 1101 | cathodes = 1111010
Time =          94000030000 | reset = 0 | sensor = 1001 | AF = 0 | BF = 1 | LED = 0 | SF = 1 | anodes = 1011 | cathodes = 0110000
Time =          96000030000 | reset = 0 | sensor = 1001 | AF = 0 | BF = 1 | LED = 0 | SF = 1 | anodes = 1111 | cathodes = 0110000
Time =          96000050000 | reset = 0 | sensor = 1001 | AF = 0 | BF = 1 | LED = 0 | SF = 1 | anodes = 1110 | cathodes = 1111010
Time =          98000030000 | reset = 0 | sensor = 1001 | AF = 0 | BF = 1 | LED = 0 | SF = 1 | anodes = 1101 | cathodes = 1111010
Time =         100000030000 | reset = 0 | sensor = 1001 | AF = 0 | BF = 1 | LED = 0 | SF = 1 | anodes = 1011 | cathodes = 0110000
Time =         102000030000 | reset = 0 | sensor = 1001 | AF = 0 | BF = 1 | LED = 0 | SF = 1 | anodes = 1111 | cathodes = 0110000
Time =         102000050000 | reset = 0 | sensor = 1001 | AF = 0 | BF = 1 | LED = 0 | SF = 1 | anodes = 1110 | cathodes = 1111010
Time =         104000030000 | reset = 0 | sensor = 1001 | AF = 0 | BF = 1 | LED = 0 | SF = 1 | anodes = 1101 | cathodes = 1111010
Time =         105000070000 | reset = 0 | sensor = 1001 | AF = 0 | BF = 1 | LED = 1 | SF = 1 | anodes = 1101 | cathodes = 1111010
Time =         105000090000 | reset = 0 | sensor = 1001 | AF = 0 | BF = 1 | LED = 1 | SF = 1 | anodes = 1101 | cathodes = 0000001
Time =         106000030000 | reset = 0 | sensor = 1001 | AF = 0 | BF = 1 | LED = 1 | SF = 1 | anodes = 1011 | cathodes = 0000001
Time =         108000030000 | reset = 0 | sensor = 1001 | AF = 0 | BF = 1 | LED = 1 | SF = 1 | anodes = 1111 | cathodes = 0000001
Time =         108000050000 | reset = 0 | sensor = 1001 | AF = 0 | BF = 1 | LED = 1 | SF = 1 | anodes = 1110 | cathodes = 0000001
Time =         110000030000 | reset = 0 | sensor = 1001 | AF = 0 | BF = 1 | LED = 1 | SF = 1 | anodes = 1101 | cathodes = 0000001
Time =         112000030000 | reset = 0 | sensor = 1001 | AF = 0 | BF = 1 | LED = 1 | SF = 1 | anodes = 1011 | cathodes = 0000001
Time =         114000030000 | reset = 0 | sensor = 1001 | AF = 0 | BF = 1 | LED = 1 | SF = 1 | anodes = 1111 | cathodes = 0000001
Time =         114000050000 | reset = 0 | sensor = 1001 | AF = 0 | BF = 1 | LED = 1 | SF = 1 | anodes = 1110 | cathodes = 0000001
Time =         115000070000 | reset = 0 | sensor = 1001 | AF = 0 | BF = 1 | LED = 0 | SF = 1 | anodes = 1110 | cathodes = 0000001
Time =         116000030000 | reset = 0 | sensor = 1001 | AF = 0 | BF = 1 | LED = 0 | SF = 1 | anodes = 1101 | cathodes = 0000001
Time =         118000030000 | reset = 0 | sensor = 1001 | AF = 0 | BF = 1 | LED = 0 | SF = 1 | anodes = 1011 | cathodes = 0000001
Time =         120000030000 | reset = 0 | sensor = 1001 | AF = 0 | BF = 1 | LED = 0 | SF = 1 | anodes = 1111 | cathodes = 0000001
Time =         120000050000 | reset = 0 | sensor = 1001 | AF = 0 | BF = 1 | LED = 0 | SF = 1 | anodes = 1110 | cathodes = 0000001
Time =         122000030000 | reset = 0 | sensor = 1001 | AF = 0 | BF = 1 | LED = 0 | SF = 1 | anodes = 1101 | cathodes = 0000001
Time =         124000030000 | reset = 0 | sensor = 1001 | AF = 0 | BF = 1 | LED = 0 | SF = 1 | anodes = 1011 | cathodes = 0000001
Time =         125000090000 | reset = 0 | sensor = 1001 | AF = 0 | BF = 1 | LED = 1 | SF = 1 | anodes = 1011 | cathodes = 0000001
Time =         126000030000 | reset = 0 | sensor = 1001 | AF = 0 | BF = 1 | LED = 1 | SF = 1 | anodes = 1111 | cathodes = 0000001
Time =         126000050000 | reset = 0 | sensor = 1001 | AF = 0 | BF = 1 | LED = 1 | SF = 1 | anodes = 1110 | cathodes = 0000001
Time =         128000030000 | reset = 0 | sensor = 1001 | AF = 0 | BF = 1 | LED = 1 | SF = 1 | anodes = 1101 | cathodes = 0000001
Time =         130000030000 | reset = 0 | sensor = 1001 | AF = 0 | BF = 1 | LED = 1 | SF = 1 | anodes = 1011 | cathodes = 0000001
Time =         132000030000 | reset = 0 | sensor = 1001 | AF = 0 | BF = 1 | LED = 1 | SF = 1 | anodes = 1111 | cathodes = 0000001
Time =         132000050000 | reset = 0 | sensor = 1001 | AF = 0 | BF = 1 | LED = 1 | SF = 1 | anodes = 1110 | cathodes = 0000001
Time =         134000030000 | reset = 0 | sensor = 1001 | AF = 0 | BF = 1 | LED = 1 | SF = 1 | anodes = 1101 | cathodes = 0000001
Time =         135000090000 | reset = 0 | sensor = 1001 | AF = 0 | BF = 1 | LED = 0 | SF = 1 | anodes = 1101 | cathodes = 0000001
Time =         136000030000 | reset = 0 | sensor = 1001 | AF = 0 | BF = 1 | LED = 0 | SF = 1 | anodes = 1011 | cathodes = 0000001
Time =         138000030000 | reset = 0 | sensor = 1001 | AF = 0 | BF = 1 | LED = 0 | SF = 1 | anodes = 1111 | cathodes = 0000001
Time =         138000050000 | reset = 0 | sensor = 1001 | AF = 0 | BF = 1 | LED = 0 | SF = 1 | anodes = 1110 | cathodes = 0000001
Time =         140000020000 | reset = 0 | sensor = 0000 | AF = 0 | BF = 1 | LED = 0 | SF = 1 | anodes = 1110 | cathodes = 0000001
Time =         140000030000 | reset = 0 | sensor = 0000 | AF = 0 | BF = 1 | LED = 0 | SF = 1 | anodes = 1101 | cathodes = 0000001
Time =         142000030000 | reset = 0 | sensor = 0000 | AF = 0 | BF = 1 | LED = 0 | SF = 1 | anodes = 1011 | cathodes = 0000001
Time =         144000030000 | reset = 0 | sensor = 0000 | AF = 0 | BF = 1 | LED = 0 | SF = 1 | anodes = 1111 | cathodes = 0000001
Time =         144000050000 | reset = 0 | sensor = 0000 | AF = 0 | BF = 1 | LED = 0 | SF = 1 | anodes = 1110 | cathodes = 0000001
Time =         145000090000 | reset = 0 | sensor = 0000 | AF = 0 | BF = 1 | LED = 1 | SF = 1 | anodes = 1110 | cathodes = 0000001
Time =         145000110000 | reset = 0 | sensor = 0000 | AF = 0 | BF = 1 | LED = 1 | SF = 1 | anodes = 1110 | cathodes = 1000010
Time =         146000030000 | reset = 0 | sensor = 0000 | AF = 0 | BF = 1 | LED = 1 | SF = 1 | anodes = 1101 | cathodes = 1101010
Time =         148000030000 | reset = 0 | sensor = 0000 | AF = 0 | BF = 1 | LED = 1 | SF = 1 | anodes = 1011 | cathodes = 0110000
Time =         150000030000 | reset = 0 | sensor = 0000 | AF = 0 | BF = 1 | LED = 1 | SF = 1 | anodes = 1111 | cathodes = 0110000
Time =         150000050000 | reset = 0 | sensor = 0000 | AF = 0 | BF = 1 | LED = 1 | SF = 1 | anodes = 1110 | cathodes = 1000010
Time =         152000030000 | reset = 0 | sensor = 0000 | AF = 0 | BF = 1 | LED = 1 | SF = 1 | anodes = 1101 | cathodes = 1101010
Time =         154000030000 | reset = 0 | sensor = 0000 | AF = 0 | BF = 1 | LED = 1 | SF = 1 | anodes = 1011 | cathodes = 0110000
Time =         155000110000 | reset = 0 | sensor = 0000 | AF = 0 | BF = 1 | LED = 0 | SF = 1 | anodes = 1011 | cathodes = 0110000
Time =         156000030000 | reset = 0 | sensor = 0000 | AF = 0 | BF = 1 | LED = 0 | SF = 1 | anodes = 1111 | cathodes = 0110000
Time =         156000050000 | reset = 0 | sensor = 0000 | AF = 0 | BF = 1 | LED = 0 | SF = 1 | anodes = 1110 | cathodes = 1000010
Time =         158000030000 | reset = 0 | sensor = 0000 | AF = 0 | BF = 1 | LED = 0 | SF = 1 | anodes = 1101 | cathodes = 1101010
Time =         160000030000 | reset = 0 | sensor = 0000 | AF = 0 | BF = 1 | LED = 0 | SF = 1 | anodes = 1011 | cathodes = 0110000
Time =         162000030000 | reset = 0 | sensor = 0000 | AF = 0 | BF = 1 | LED = 0 | SF = 1 | anodes = 1111 | cathodes = 0110000
Time =         162000050000 | reset = 0 | sensor = 0000 | AF = 0 | BF = 1 | LED = 0 | SF = 1 | anodes = 1110 | cathodes = 1000010
Time =         164000030000 | reset = 0 | sensor = 0000 | AF = 0 | BF = 1 | LED = 0 | SF = 1 | anodes = 1101 | cathodes = 1101010
Time =         166000030000 | reset = 0 | sensor = 0000 | AF = 0 | BF = 1 | LED = 0 | SF = 1 | anodes = 1011 | cathodes = 0110000
Time =         168000030000 | reset = 0 | sensor = 0000 | AF = 0 | BF = 1 | LED = 0 | SF = 1 | anodes = 1111 | cathodes = 0110000
Time =         168000050000 | reset = 0 | sensor = 0000 | AF = 0 | BF = 1 | LED = 0 | SF = 1 | anodes = 1110 | cathodes = 1000010
Time =         170000020000 | reset = 0 | sensor = 0001 | AF = 0 | BF = 1 | LED = 0 | SF = 1 | anodes = 1110 | cathodes = 1000010
Time =         170000030000 | reset = 0 | sensor = 0001 | AF = 0 | BF = 1 | LED = 0 | SF = 1 | anodes = 1101 | cathodes = 1101010
Time =         172000030000 | reset = 0 | sensor = 0001 | AF = 0 | BF = 1 | LED = 0 | SF = 1 | anodes = 1011 | cathodes = 0110000
Time =         174000030000 | reset = 0 | sensor = 0001 | AF = 0 | BF = 1 | LED = 0 | SF = 1 | anodes = 1111 | cathodes = 0110000
Time =         174000050000 | reset = 0 | sensor = 0001 | AF = 0 | BF = 1 | LED = 0 | SF = 1 | anodes = 1110 | cathodes = 1000010
Time =         175000130000 | reset = 0 | sensor = 0001 | AF = 0 | BF = 1 | LED = 0 | SF = 1 | anodes = 1110 | cathodes = 1110001
Time =         176000030000 | reset = 0 | sensor = 0001 | AF = 0 | BF = 1 | LED = 0 | SF = 1 | anodes = 1101 | cathodes = 1000010
Time =         178000030000 | reset = 0 | sensor = 0001 | AF = 0 | BF = 1 | LED = 0 | SF = 1 | anodes = 1011 | cathodes = 1001111
Time =         180000030000 | reset = 0 | sensor = 0001 | AF = 0 | BF = 1 | LED = 0 | SF = 1 | anodes = 1111 | cathodes = 1001111
Time =         180000050000 | reset = 0 | sensor = 0001 | AF = 0 | BF = 1 | LED = 0 | SF = 1 | anodes = 1110 | cathodes = 1110001
Time =         182000030000 | reset = 0 | sensor = 0001 | AF = 0 | BF = 1 | LED = 0 | SF = 1 | anodes = 1101 | cathodes = 1000010
Time =         184000030000 | reset = 0 | sensor = 0001 | AF = 0 | BF = 1 | LED = 0 | SF = 1 | anodes = 1011 | cathodes = 1001111
Time =         185000130000 | reset = 0 | sensor = 0001 | AF = 1 | BF = 1 | LED = 0 | SF = 1 | anodes = 1011 | cathodes = 1001111
Time =         185000150000 | reset = 0 | sensor = 0001 | AF = 1 | BF = 1 | LED = 0 | SF = 1 | anodes = 1011 | cathodes = 1000010
Time =         186000030000 | reset = 0 | sensor = 0001 | AF = 1 | BF = 1 | LED = 0 | SF = 1 | anodes = 1111 | cathodes = 1000010
Time =         186000050000 | reset = 0 | sensor = 0001 | AF = 1 | BF = 1 | LED = 0 | SF = 1 | anodes = 1110 | cathodes = 1110000
Time =         188000030000 | reset = 0 | sensor = 0001 | AF = 1 | BF = 1 | LED = 0 | SF = 1 | anodes = 1101 | cathodes = 0110000
Time =         190000030000 | reset = 0 | sensor = 0001 | AF = 1 | BF = 1 | LED = 0 | SF = 1 | anodes = 1011 | cathodes = 1000010
Time =         192000030000 | reset = 0 | sensor = 0001 | AF = 1 | BF = 1 | LED = 0 | SF = 1 | anodes = 1111 | cathodes = 1000010
Time =         192000050000 | reset = 0 | sensor = 0001 | AF = 1 | BF = 1 | LED = 0 | SF = 1 | anodes = 1110 | cathodes = 1110000
Time =         194000030000 | reset = 0 | sensor = 0001 | AF = 1 | BF = 1 | LED = 0 | SF = 1 | anodes = 1101 | cathodes = 0110000
Time =         196000030000 | reset = 0 | sensor = 0001 | AF = 1 | BF = 1 | LED = 0 | SF = 1 | anodes = 1011 | cathodes = 1000010
Time =         198000030000 | reset = 0 | sensor = 0001 | AF = 1 | BF = 1 | LED = 0 | SF = 1 | anodes = 1111 | cathodes = 1000010
Time =         198000050000 | reset = 0 | sensor = 0001 | AF = 1 | BF = 1 | LED = 0 | SF = 1 | anodes = 1110 | cathodes = 1110000
Time =         200000030000 | reset = 0 | sensor = 0001 | AF = 1 | BF = 1 | LED = 0 | SF = 1 | anodes = 1101 | cathodes = 0110000
Time =         202000030000 | reset = 0 | sensor = 0001 | AF = 1 | BF = 1 | LED = 0 | SF = 1 | anodes = 1011 | cathodes = 1000010
Time =         204000030000 | reset = 0 | sensor = 0001 | AF = 1 | BF = 1 | LED = 0 | SF = 1 | anodes = 1111 | cathodes = 1000010
Time =         204000050000 | reset = 0 | sensor = 0001 | AF = 1 | BF = 1 | LED = 0 | SF = 1 | anodes = 1110 | cathodes = 1110000
Time =         206000030000 | reset = 0 | sensor = 0001 | AF = 1 | BF = 1 | LED = 0 | SF = 1 | anodes = 1101 | cathodes = 0110000
Time =         208000030000 | reset = 0 | sensor = 0001 | AF = 1 | BF = 1 | LED = 0 | SF = 1 | anodes = 1011 | cathodes = 1000010
Time =         210000030000 | reset = 0 | sensor = 0001 | AF = 1 | BF = 1 | LED = 0 | SF = 1 | anodes = 1111 | cathodes = 1000010
Time =         210000050000 | reset = 0 | sensor = 0001 | AF = 1 | BF = 1 | LED = 0 | SF = 1 | anodes = 1110 | cathodes = 1110000
Time =         212000030000 | reset = 0 | sensor = 0001 | AF = 1 | BF = 1 | LED = 0 | SF = 1 | anodes = 1101 | cathodes = 0110000
Time =         214000030000 | reset = 0 | sensor = 0001 | AF = 1 | BF = 1 | LED = 0 | SF = 1 | anodes = 1011 | cathodes = 1000010
Time =         216000030000 | reset = 0 | sensor = 0001 | AF = 1 | BF = 1 | LED = 0 | SF = 1 | anodes = 1111 | cathodes = 1000010
Time =         216000050000 | reset = 0 | sensor = 0001 | AF = 1 | BF = 1 | LED = 0 | SF = 1 | anodes = 1110 | cathodes = 1110000
Time =         218000030000 | reset = 0 | sensor = 0001 | AF = 1 | BF = 1 | LED = 0 | SF = 1 | anodes = 1101 | cathodes = 0110000
Time =         220000020000 | reset = 0 | sensor = 0101 | AF = 1 | BF = 1 | LED = 0 | SF = 1 | anodes = 1101 | cathodes = 0110000
Time =         220000030000 | reset = 0 | sensor = 0101 | AF = 1 | BF = 1 | LED = 0 | SF = 1 | anodes = 1011 | cathodes = 1000010
Time =         222000030000 | reset = 0 | sensor = 0101 | AF = 1 | BF = 1 | LED = 0 | SF = 1 | anodes = 1111 | cathodes = 1000010
Time =         222000050000 | reset = 0 | sensor = 0101 | AF = 1 | BF = 1 | LED = 0 | SF = 1 | anodes = 1110 | cathodes = 1110000
Time =         224000030000 | reset = 0 | sensor = 0101 | AF = 1 | BF = 1 | LED = 0 | SF = 1 | anodes = 1101 | cathodes = 0110000
Time =         226000030000 | reset = 0 | sensor = 0101 | AF = 1 | BF = 1 | LED = 0 | SF = 1 | anodes = 1011 | cathodes = 1000010
Time =         228000030000 | reset = 0 | sensor = 0101 | AF = 1 | BF = 1 | LED = 0 | SF = 1 | anodes = 1111 | cathodes = 1000010
Time =         228000050000 | reset = 0 | sensor = 0101 | AF = 1 | BF = 1 | LED = 0 | SF = 1 | anodes = 1110 | cathodes = 1110000
Time =         230000030000 | reset = 0 | sensor = 0101 | AF = 1 | BF = 1 | LED = 0 | SF = 1 | anodes = 1101 | cathodes = 0110000
Time =         232000030000 | reset = 0 | sensor = 0101 | AF = 1 | BF = 1 | LED = 0 | SF = 1 | anodes = 1011 | cathodes = 1000010
Time =         234000030000 | reset = 0 | sensor = 0101 | AF = 1 | BF = 1 | LED = 0 | SF = 1 | anodes = 1111 | cathodes = 1000010
Time =         234000050000 | reset = 0 | sensor = 0101 | AF = 1 | BF = 1 | LED = 0 | SF = 1 | anodes = 1110 | cathodes = 1110000
Time =         236000030000 | reset = 0 | sensor = 0101 | AF = 1 | BF = 1 | LED = 0 | SF = 1 | anodes = 1101 | cathodes = 0110000
Time =         238000030000 | reset = 0 | sensor = 0101 | AF = 1 | BF = 1 | LED = 0 | SF = 1 | anodes = 1011 | cathodes = 1000010
Time =         240000030000 | reset = 0 | sensor = 0101 | AF = 1 | BF = 1 | LED = 0 | SF = 1 | anodes = 1111 | cathodes = 1000010
Time =         240000050000 | reset = 0 | sensor = 0101 | AF = 1 | BF = 1 | LED = 0 | SF = 1 | anodes = 1110 | cathodes = 1110000
Time =         242000030000 | reset = 0 | sensor = 0101 | AF = 1 | BF = 1 | LED = 0 | SF = 1 | anodes = 1101 | cathodes = 0110000
Time =         244000030000 | reset = 0 | sensor = 0101 | AF = 1 | BF = 1 | LED = 0 | SF = 1 | anodes = 1011 | cathodes = 1000010
Time =         245000170000 | reset = 0 | sensor = 0101 | AF = 1 | BF = 0 | LED = 0 | SF = 0 | anodes = 1011 | cathodes = 1000010
Time =         245000190000 | reset = 0 | sensor = 0101 | AF = 1 | BF = 0 | LED = 0 | SF = 0 | anodes = 1011 | cathodes = 1100000
Time =         246000030000 | reset = 0 | sensor = 0101 | AF = 1 | BF = 0 | LED = 0 | SF = 0 | anodes = 1111 | cathodes = 1100000
Time =         246000050000 | reset = 0 | sensor = 0101 | AF = 1 | BF = 0 | LED = 0 | SF = 0 | anodes = 1110 | cathodes = 1110000
Time =         248000030000 | reset = 0 | sensor = 0101 | AF = 1 | BF = 0 | LED = 0 | SF = 0 | anodes = 1101 | cathodes = 0000001
Time =         250000030000 | reset = 0 | sensor = 0101 | AF = 1 | BF = 0 | LED = 0 | SF = 0 | anodes = 1011 | cathodes = 1100000
Time =         252000030000 | reset = 0 | sensor = 0101 | AF = 1 | BF = 0 | LED = 0 | SF = 0 | anodes = 1111 | cathodes = 1100000
Time =         252000050000 | reset = 0 | sensor = 0101 | AF = 1 | BF = 0 | LED = 0 | SF = 0 | anodes = 1110 | cathodes = 1110000
Time =         254000030000 | reset = 0 | sensor = 0101 | AF = 1 | BF = 0 | LED = 0 | SF = 0 | anodes = 1101 | cathodes = 0000001
Time =         256000030000 | reset = 0 | sensor = 0101 | AF = 1 | BF = 0 | LED = 0 | SF = 0 | anodes = 1011 | cathodes = 0000001
Time =         258000030000 | reset = 0 | sensor = 0101 | AF = 1 | BF = 0 | LED = 0 | SF = 0 | anodes = 1111 | cathodes = 0000001
Time =         258000050000 | reset = 0 | sensor = 0101 | AF = 1 | BF = 0 | LED = 0 | SF = 0 | anodes = 1110 | cathodes = 0000001
Time =         260000030000 | reset = 0 | sensor = 0101 | AF = 1 | BF = 0 | LED = 0 | SF = 0 | anodes = 1101 | cathodes = 0000001
Time =         262000030000 | reset = 0 | sensor = 0101 | AF = 1 | BF = 0 | LED = 0 | SF = 0 | anodes = 1011 | cathodes = 0000001
Time =         264000030000 | reset = 0 | sensor = 0101 | AF = 1 | BF = 0 | LED = 0 | SF = 0 | anodes = 1111 | cathodes = 0000001
Time =         264000050000 | reset = 0 | sensor = 0101 | AF = 1 | BF = 0 | LED = 0 | SF = 0 | anodes = 1110 | cathodes = 0000001
